
{
  "channel": "ABCDEBF1",
  "attachments": [
      {
        "mrkdwn_in": ["text"],
          "color": "#c7102b",
          "pretext": "*PIPELINE JOB REPORT*",
          "author_name": "Pipeline Job Status Reporter",
          "author_link": "https://elijah0kello.web.app",
          "author_icon": "http://placeimg.com/16/16/tech",
          "title": "Job Information",
          "title_link": "https://api.slack.com/",
          "text": "Commit Message: ` $CI_COMMIT_MESSAGE ` \n Commit Branch: ` $CI_COMMIT_BRANCH ` \n Job Name: ` $CI_JOB_NAME `\n Job Url: $CI_JOB_URL \n Job Stage: ` $CI_JOB_STAGE ` \n Job Status: ` $CI_JOB_STATUS ` \n Time stamp: ` $CI_COMMIT_TIMESTAMP ` \n Repo Name: ` $CI_PROJECT_NAME ` \n Name of Committer: ` $CI_COMMIT_AUTHOR ` \n Start Time: ` $CI_JOB_STARTED_AT ` \n Reason for failure: ` $REASON `",
          "footer": "Pipeline Job Reporter",
          "footer_icon": "https://platform.slack-edge.com/img/default_application_icon.png",
          "ts": 123456789
      }
  ]
}
